---
http_interactions:
- request:
    method: get
    uri: https://youtube.googleapis.com/youtube/v3/search?key=AIzaSyDAwrxNaQyqZmcYZD_x2C4vscRrlwWTRas&maxResults=1&order=rating&part=snippet&q=thailand&safeSearch=strict&type=video
    body:
      encoding: US-ASCII
      string: ''
    headers:
      User-Agent:
      - Faraday v2.7.4
      Accept-Encoding:
      - gzip;q=1.0,deflate;q=0.6,identity;q=0.3
      Accept:
      - "*/*"
  response:
    status:
      code: 200
      message: OK
    headers:
      Content-Type:
      - application/json; charset=UTF-8
      Vary:
      - Origin
      - Referer
      - X-Origin
      Date:
      - Fri, 17 Mar 2023 18:01:12 GMT
      Server:
      - scaffolding on HTTPServer2
      Cache-Control:
      - private
      X-Xss-Protection:
      - '0'
      X-Frame-Options:
      - SAMEORIGIN
      X-Content-Type-Options:
      - nosniff
      Alt-Svc:
      - h3=":443"; ma=2592000,h3-29=":443"; ma=2592000
      Transfer-Encoding:
      - chunked
    body:
      encoding: UTF-8
      string: |
        {
          "kind": "youtube#searchListResponse",
          "etag": "Z-e4awW0RjOQTDEnSGRuUeY_Gcs",
          "nextPageToken": "CAEQAA",
          "regionCode": "US",
          "pageInfo": {
            "totalResults": 1000000,
            "resultsPerPage": 1
          },
          "items": [
            {
              "kind": "youtube#searchResult",
              "etag": "NFwReidvzJVeYTZvZs6SR1m8DIo",
              "id": {
                "kind": "youtube#video",
                "videoId": "NDf33fhwNko"
              },
              "snippet": {
                "publishedAt": "2023-03-14T10:42:06Z",
                "channelId": "UCoiCnYFpCc8IvRJEuoIg_wQ",
                "title": "The Living Hell? Gastarbeiter in Thailand",
                "description": "An die 4 Millionen Gast- oder Fremdarbeiter aus den Ländern Burma (Myanmar), Laos und Kambodscha sind in Thailand ...",
                "thumbnails": {
                  "default": {
                    "url": "https://i.ytimg.com/vi/NDf33fhwNko/default.jpg",
                    "width": 120,
                    "height": 90
                  },
                  "medium": {
                    "url": "https://i.ytimg.com/vi/NDf33fhwNko/mqdefault.jpg",
                    "width": 320,
                    "height": 180
                  },
                  "high": {
                    "url": "https://i.ytimg.com/vi/NDf33fhwNko/hqdefault.jpg",
                    "width": 480,
                    "height": 360
                  }
                },
                "channelTitle": "Siam Rider",
                "liveBroadcastContent": "none",
                "publishTime": "2023-03-14T10:42:06Z"
              }
            }
          ]
        }
  recorded_at: Fri, 17 Mar 2023 18:01:12 GMT
- request:
    method: get
    uri: https://api.pexels.com/v1/search?per_page=10&query=thailand
    body:
      encoding: US-ASCII
      string: ''
    headers:
      Authorization:
      - Gq4m9zFQJg7LENZhJbeel9halsqwNURm3GsF6vbeK7K65U4F3nvSRDtn
      User-Agent:
      - Faraday v2.7.4
      Accept-Encoding:
      - gzip;q=1.0,deflate;q=0.6,identity;q=0.3
      Accept:
      - "*/*"
  response:
    status:
      code: 200
      message: OK
    headers:
      Date:
      - Fri, 17 Mar 2023 18:01:12 GMT
      Content-Type:
      - application/json; charset=utf-8
      Transfer-Encoding:
      - chunked
      Connection:
      - keep-alive
      Cf-Ray:
      - 7a9723cb3a041f40-DEN
      Access-Control-Allow-Origin:
      - "*"
      Age:
      - '4152'
      Cache-Control:
      - max-age=86400
      Etag:
      - W/"8176c5c3155751f2ace0e66d92f55b4c"
      Expires:
      - Sat, 18 Mar 2023 18:01:12 GMT
      Cf-Cache-Status:
      - HIT
      X-Frame-Options:
      - SAMEORIGIN
      X-Ratelimit-Limit:
      - '25000'
      X-Ratelimit-Remaining:
      - '24984'
      X-Ratelimit-Reset:
      - '1681663842'
      X-Request-Id:
      - f19b3772-d4dd-41dc-a27c-1caf22d453d9
      X-Runtime:
      - '0.066370'
      X-Server:
      - caterpillar
      Set-Cookie:
      - __cf_bm=Xa2w0iXeUL_mU7GOheAbBamgCEpHYgif2H_jaaeFlmw-1679076072-0-AV9/5CXfu4ufqe29v7dZPi2meERRNN1lbHmXuShQJmTuu+KmRLwZwyjPkjFR4wU/Y+5egF6B5MZTKg4i8XxlIec=;
        path=/; expires=Fri, 17-Mar-23 18:31:12 GMT; domain=.pexels.com; HttpOnly;
        Secure; SameSite=None
      Vary:
      - Accept-Encoding
      Server:
      - cloudflare
      Alt-Svc:
      - h3=":443"; ma=86400, h3-29=":443"; ma=86400
    body:
      encoding: UTF-8
      string: '{"page":1,"per_page":10,"photos":[{"id":3393546,"width":3573,"height":5360,"url":"https://www.pexels.com/photo/man-standing-outside-a-prayer-temple-3393546/","photographer":"Nick
        Wehrli","photographer_url":"https://www.pexels.com/@oidonnyboy","photographer_id":1803654,"avg_color":"#958478","src":{"original":"https://images.pexels.com/photos/3393546/pexels-photo-3393546.jpeg","large2x":"https://images.pexels.com/photos/3393546/pexels-photo-3393546.jpeg?auto=compress\u0026cs=tinysrgb\u0026dpr=2\u0026h=650\u0026w=940","large":"https://images.pexels.com/photos/3393546/pexels-photo-3393546.jpeg?auto=compress\u0026cs=tinysrgb\u0026h=650\u0026w=940","medium":"https://images.pexels.com/photos/3393546/pexels-photo-3393546.jpeg?auto=compress\u0026cs=tinysrgb\u0026h=350","small":"https://images.pexels.com/photos/3393546/pexels-photo-3393546.jpeg?auto=compress\u0026cs=tinysrgb\u0026h=130","portrait":"https://images.pexels.com/photos/3393546/pexels-photo-3393546.jpeg?auto=compress\u0026cs=tinysrgb\u0026fit=crop\u0026h=1200\u0026w=800","landscape":"https://images.pexels.com/photos/3393546/pexels-photo-3393546.jpeg?auto=compress\u0026cs=tinysrgb\u0026fit=crop\u0026h=627\u0026w=1200","tiny":"https://images.pexels.com/photos/3393546/pexels-photo-3393546.jpeg?auto=compress\u0026cs=tinysrgb\u0026dpr=1\u0026fit=crop\u0026h=200\u0026w=280"},"liked":false,"alt":"Man
        Standing Outside a Prayer Temple"},{"id":3732494,"width":4960,"height":3272,"url":"https://www.pexels.com/photo/boats-on-seashore-3732494/","photographer":"Erik
        Karits","photographer_url":"https://www.pexels.com/@erik-karits-2093459","photographer_id":2093459,"avg_color":"#7A7466","src":{"original":"https://images.pexels.com/photos/3732494/pexels-photo-3732494.jpeg","large2x":"https://images.pexels.com/photos/3732494/pexels-photo-3732494.jpeg?auto=compress\u0026cs=tinysrgb\u0026dpr=2\u0026h=650\u0026w=940","large":"https://images.pexels.com/photos/3732494/pexels-photo-3732494.jpeg?auto=compress\u0026cs=tinysrgb\u0026h=650\u0026w=940","medium":"https://images.pexels.com/photos/3732494/pexels-photo-3732494.jpeg?auto=compress\u0026cs=tinysrgb\u0026h=350","small":"https://images.pexels.com/photos/3732494/pexels-photo-3732494.jpeg?auto=compress\u0026cs=tinysrgb\u0026h=130","portrait":"https://images.pexels.com/photos/3732494/pexels-photo-3732494.jpeg?auto=compress\u0026cs=tinysrgb\u0026fit=crop\u0026h=1200\u0026w=800","landscape":"https://images.pexels.com/photos/3732494/pexels-photo-3732494.jpeg?auto=compress\u0026cs=tinysrgb\u0026fit=crop\u0026h=627\u0026w=1200","tiny":"https://images.pexels.com/photos/3732494/pexels-photo-3732494.jpeg?auto=compress\u0026cs=tinysrgb\u0026dpr=1\u0026fit=crop\u0026h=200\u0026w=280"},"liked":false,"alt":"Boats
        on Seashore"},{"id":3243020,"width":3675,"height":5512,"url":"https://www.pexels.com/photo/peron-praying-at-buddha-for-good-luck-3243020/","photographer":"Alex
        Azabache","photographer_url":"https://www.pexels.com/@alexazabache","photographer_id":1664241,"avg_color":"#595D5B","src":{"original":"https://images.pexels.com/photos/3243020/pexels-photo-3243020.jpeg","large2x":"https://images.pexels.com/photos/3243020/pexels-photo-3243020.jpeg?auto=compress\u0026cs=tinysrgb\u0026dpr=2\u0026h=650\u0026w=940","large":"https://images.pexels.com/photos/3243020/pexels-photo-3243020.jpeg?auto=compress\u0026cs=tinysrgb\u0026h=650\u0026w=940","medium":"https://images.pexels.com/photos/3243020/pexels-photo-3243020.jpeg?auto=compress\u0026cs=tinysrgb\u0026h=350","small":"https://images.pexels.com/photos/3243020/pexels-photo-3243020.jpeg?auto=compress\u0026cs=tinysrgb\u0026h=130","portrait":"https://images.pexels.com/photos/3243020/pexels-photo-3243020.jpeg?auto=compress\u0026cs=tinysrgb\u0026fit=crop\u0026h=1200\u0026w=800","landscape":"https://images.pexels.com/photos/3243020/pexels-photo-3243020.jpeg?auto=compress\u0026cs=tinysrgb\u0026fit=crop\u0026h=627\u0026w=1200","tiny":"https://images.pexels.com/photos/3243020/pexels-photo-3243020.jpeg?auto=compress\u0026cs=tinysrgb\u0026dpr=1\u0026fit=crop\u0026h=200\u0026w=280"},"liked":false,"alt":"Peron
        Praying at Buddha For Good luck"},{"id":2271198,"width":7490,"height":4996,"url":"https://www.pexels.com/photo/palm-trees-2271198/","photographer":"Engin
        Akyurt","photographer_url":"https://www.pexels.com/@enginakyurt","photographer_id":631997,"avg_color":"#788F80","src":{"original":"https://images.pexels.com/photos/2271198/pexels-photo-2271198.jpeg","large2x":"https://images.pexels.com/photos/2271198/pexels-photo-2271198.jpeg?auto=compress\u0026cs=tinysrgb\u0026dpr=2\u0026h=650\u0026w=940","large":"https://images.pexels.com/photos/2271198/pexels-photo-2271198.jpeg?auto=compress\u0026cs=tinysrgb\u0026h=650\u0026w=940","medium":"https://images.pexels.com/photos/2271198/pexels-photo-2271198.jpeg?auto=compress\u0026cs=tinysrgb\u0026h=350","small":"https://images.pexels.com/photos/2271198/pexels-photo-2271198.jpeg?auto=compress\u0026cs=tinysrgb\u0026h=130","portrait":"https://images.pexels.com/photos/2271198/pexels-photo-2271198.jpeg?auto=compress\u0026cs=tinysrgb\u0026fit=crop\u0026h=1200\u0026w=800","landscape":"https://images.pexels.com/photos/2271198/pexels-photo-2271198.jpeg?auto=compress\u0026cs=tinysrgb\u0026fit=crop\u0026h=627\u0026w=1200","tiny":"https://images.pexels.com/photos/2271198/pexels-photo-2271198.jpeg?auto=compress\u0026cs=tinysrgb\u0026dpr=1\u0026fit=crop\u0026h=200\u0026w=280"},"liked":false,"alt":"Palm
        Trees"},{"id":130159,"width":2999,"height":2249,"url":"https://www.pexels.com/photo/black-temple-with-forest-background-130159/","photographer":"icon0.com","photographer_url":"https://www.pexels.com/@freeimages9","photographer_id":36345,"avg_color":"#B1A195","src":{"original":"https://images.pexels.com/photos/130159/pexels-photo-130159.jpeg","large2x":"https://images.pexels.com/photos/130159/pexels-photo-130159.jpeg?auto=compress\u0026cs=tinysrgb\u0026dpr=2\u0026h=650\u0026w=940","large":"https://images.pexels.com/photos/130159/pexels-photo-130159.jpeg?auto=compress\u0026cs=tinysrgb\u0026h=650\u0026w=940","medium":"https://images.pexels.com/photos/130159/pexels-photo-130159.jpeg?auto=compress\u0026cs=tinysrgb\u0026h=350","small":"https://images.pexels.com/photos/130159/pexels-photo-130159.jpeg?auto=compress\u0026cs=tinysrgb\u0026h=130","portrait":"https://images.pexels.com/photos/130159/pexels-photo-130159.jpeg?auto=compress\u0026cs=tinysrgb\u0026fit=crop\u0026h=1200\u0026w=800","landscape":"https://images.pexels.com/photos/130159/pexels-photo-130159.jpeg?auto=compress\u0026cs=tinysrgb\u0026fit=crop\u0026h=627\u0026w=1200","tiny":"https://images.pexels.com/photos/130159/pexels-photo-130159.jpeg?auto=compress\u0026cs=tinysrgb\u0026dpr=1\u0026fit=crop\u0026h=200\u0026w=280"},"liked":false,"alt":"Black
        Temple With Forest Background"},{"id":4679438,"width":6600,"height":4400,"url":"https://www.pexels.com/photo/beautiful-beach-with-calm-blue-waters-4679438/","photographer":"Dimitri
        Kuliuk","photographer_url":"https://www.pexels.com/@imagestudio","photographer_id":344345,"avg_color":"#6C7881","src":{"original":"https://images.pexels.com/photos/4679438/pexels-photo-4679438.jpeg","large2x":"https://images.pexels.com/photos/4679438/pexels-photo-4679438.jpeg?auto=compress\u0026cs=tinysrgb\u0026dpr=2\u0026h=650\u0026w=940","large":"https://images.pexels.com/photos/4679438/pexels-photo-4679438.jpeg?auto=compress\u0026cs=tinysrgb\u0026h=650\u0026w=940","medium":"https://images.pexels.com/photos/4679438/pexels-photo-4679438.jpeg?auto=compress\u0026cs=tinysrgb\u0026h=350","small":"https://images.pexels.com/photos/4679438/pexels-photo-4679438.jpeg?auto=compress\u0026cs=tinysrgb\u0026h=130","portrait":"https://images.pexels.com/photos/4679438/pexels-photo-4679438.jpeg?auto=compress\u0026cs=tinysrgb\u0026fit=crop\u0026h=1200\u0026w=800","landscape":"https://images.pexels.com/photos/4679438/pexels-photo-4679438.jpeg?auto=compress\u0026cs=tinysrgb\u0026fit=crop\u0026h=627\u0026w=1200","tiny":"https://images.pexels.com/photos/4679438/pexels-photo-4679438.jpeg?auto=compress\u0026cs=tinysrgb\u0026dpr=1\u0026fit=crop\u0026h=200\u0026w=280"},"liked":false,"alt":"Beautiful
        Beach With Calm Blue Waters "},{"id":4736426,"width":3598,"height":5397,"url":"https://www.pexels.com/photo/aerial-shot-of-green-trees-near-the-ocean-4736426/","photographer":"Ricardo
        Flores","photographer_url":"https://www.pexels.com/@ricardo-flores-2894806","photographer_id":2894806,"avg_color":"#436F7D","src":{"original":"https://images.pexels.com/photos/4736426/pexels-photo-4736426.jpeg","large2x":"https://images.pexels.com/photos/4736426/pexels-photo-4736426.jpeg?auto=compress\u0026cs=tinysrgb\u0026dpr=2\u0026h=650\u0026w=940","large":"https://images.pexels.com/photos/4736426/pexels-photo-4736426.jpeg?auto=compress\u0026cs=tinysrgb\u0026h=650\u0026w=940","medium":"https://images.pexels.com/photos/4736426/pexels-photo-4736426.jpeg?auto=compress\u0026cs=tinysrgb\u0026h=350","small":"https://images.pexels.com/photos/4736426/pexels-photo-4736426.jpeg?auto=compress\u0026cs=tinysrgb\u0026h=130","portrait":"https://images.pexels.com/photos/4736426/pexels-photo-4736426.jpeg?auto=compress\u0026cs=tinysrgb\u0026fit=crop\u0026h=1200\u0026w=800","landscape":"https://images.pexels.com/photos/4736426/pexels-photo-4736426.jpeg?auto=compress\u0026cs=tinysrgb\u0026fit=crop\u0026h=627\u0026w=1200","tiny":"https://images.pexels.com/photos/4736426/pexels-photo-4736426.jpeg?auto=compress\u0026cs=tinysrgb\u0026dpr=1\u0026fit=crop\u0026h=200\u0026w=280"},"liked":false,"alt":"Aerial
        Shot of Green Trees Near the Ocean "},{"id":4682328,"width":4128,"height":6192,"url":"https://www.pexels.com/photo/women-dancing-on-the-stage-4682328/","photographer":"Jeffrey
        Soh","photographer_url":"https://www.pexels.com/@jeffreysoh","photographer_id":3038810,"avg_color":"#755B3B","src":{"original":"https://images.pexels.com/photos/4682328/pexels-photo-4682328.jpeg","large2x":"https://images.pexels.com/photos/4682328/pexels-photo-4682328.jpeg?auto=compress\u0026cs=tinysrgb\u0026dpr=2\u0026h=650\u0026w=940","large":"https://images.pexels.com/photos/4682328/pexels-photo-4682328.jpeg?auto=compress\u0026cs=tinysrgb\u0026h=650\u0026w=940","medium":"https://images.pexels.com/photos/4682328/pexels-photo-4682328.jpeg?auto=compress\u0026cs=tinysrgb\u0026h=350","small":"https://images.pexels.com/photos/4682328/pexels-photo-4682328.jpeg?auto=compress\u0026cs=tinysrgb\u0026h=130","portrait":"https://images.pexels.com/photos/4682328/pexels-photo-4682328.jpeg?auto=compress\u0026cs=tinysrgb\u0026fit=crop\u0026h=1200\u0026w=800","landscape":"https://images.pexels.com/photos/4682328/pexels-photo-4682328.jpeg?auto=compress\u0026cs=tinysrgb\u0026fit=crop\u0026h=627\u0026w=1200","tiny":"https://images.pexels.com/photos/4682328/pexels-photo-4682328.jpeg?auto=compress\u0026cs=tinysrgb\u0026dpr=1\u0026fit=crop\u0026h=200\u0026w=280"},"liked":false,"alt":"Women
        Dancing on the Stage"},{"id":236517,"width":3264,"height":2448,"url":"https://www.pexels.com/photo/brown-and-white-temple-under-blue-sky-236517/","photographer":"icon0.com","photographer_url":"https://www.pexels.com/@freeimages9","photographer_id":36345,"avg_color":"#AAACAC","src":{"original":"https://images.pexels.com/photos/236517/pexels-photo-236517.jpeg","large2x":"https://images.pexels.com/photos/236517/pexels-photo-236517.jpeg?auto=compress\u0026cs=tinysrgb\u0026dpr=2\u0026h=650\u0026w=940","large":"https://images.pexels.com/photos/236517/pexels-photo-236517.jpeg?auto=compress\u0026cs=tinysrgb\u0026h=650\u0026w=940","medium":"https://images.pexels.com/photos/236517/pexels-photo-236517.jpeg?auto=compress\u0026cs=tinysrgb\u0026h=350","small":"https://images.pexels.com/photos/236517/pexels-photo-236517.jpeg?auto=compress\u0026cs=tinysrgb\u0026h=130","portrait":"https://images.pexels.com/photos/236517/pexels-photo-236517.jpeg?auto=compress\u0026cs=tinysrgb\u0026fit=crop\u0026h=1200\u0026w=800","landscape":"https://images.pexels.com/photos/236517/pexels-photo-236517.jpeg?auto=compress\u0026cs=tinysrgb\u0026fit=crop\u0026h=627\u0026w=1200","tiny":"https://images.pexels.com/photos/236517/pexels-photo-236517.jpeg?auto=compress\u0026cs=tinysrgb\u0026dpr=1\u0026fit=crop\u0026h=200\u0026w=280"},"liked":false,"alt":"Brown
        and White Temple Under Blue Sky"},{"id":4206646,"width":5617,"height":3745,"url":"https://www.pexels.com/photo/boat-on-body-of-water-4206646/","photographer":"Elina
        Sazonova","photographer_url":"https://www.pexels.com/@elina-sazonova","photographer_id":912559,"avg_color":"#BEAC98","src":{"original":"https://images.pexels.com/photos/4206646/pexels-photo-4206646.jpeg","large2x":"https://images.pexels.com/photos/4206646/pexels-photo-4206646.jpeg?auto=compress\u0026cs=tinysrgb\u0026dpr=2\u0026h=650\u0026w=940","large":"https://images.pexels.com/photos/4206646/pexels-photo-4206646.jpeg?auto=compress\u0026cs=tinysrgb\u0026h=650\u0026w=940","medium":"https://images.pexels.com/photos/4206646/pexels-photo-4206646.jpeg?auto=compress\u0026cs=tinysrgb\u0026h=350","small":"https://images.pexels.com/photos/4206646/pexels-photo-4206646.jpeg?auto=compress\u0026cs=tinysrgb\u0026h=130","portrait":"https://images.pexels.com/photos/4206646/pexels-photo-4206646.jpeg?auto=compress\u0026cs=tinysrgb\u0026fit=crop\u0026h=1200\u0026w=800","landscape":"https://images.pexels.com/photos/4206646/pexels-photo-4206646.jpeg?auto=compress\u0026cs=tinysrgb\u0026fit=crop\u0026h=627\u0026w=1200","tiny":"https://images.pexels.com/photos/4206646/pexels-photo-4206646.jpeg?auto=compress\u0026cs=tinysrgb\u0026dpr=1\u0026fit=crop\u0026h=200\u0026w=280"},"liked":false,"alt":"Boat
        on Body of Water"}],"total_results":1668,"next_page":"https://api.pexels.com/v1/search/?page=2\u0026per_page=10\u0026query=thailand"}'
  recorded_at: Fri, 17 Mar 2023 18:01:12 GMT
recorded_with: VCR 6.1.0
